{
  "$schema": "http://json-schema.org/draft-04/schema#",
  "type": "object",
  "properties": {
    "token": {
      "type": "string",
      "pattern": "^[0-9A-Za-z]{32}$"
    }
  },
  "required": ["token"],
  "additionalProperties": false
}
