{
  "$schema": "http://json-schema.org/draft-04/schema#",
  "type": "object",
  "properties": {
    "error": {
      "enum": ["Метод DELETE запрещён для данного ресурса"]
    }
  },
  "requied": ["error"],
  "additionalProperties": false
}
