{
  "$schema": "http://json-schema.org/draft-04/schema#",
  "type": "array",
  "items": {
    "type": "object",
    "properties": {
      "last_used": {
        "type": "string",
        "format": "date-time"
      },
      "token": {
        "type": "string",
        "pattern": "^[0-9A-Za-z]{32}$"
      },
      "user_agent": {
        "type": "string",
        "pattern": "^\\w+\/\\d+\\.[\\.\\d+]+\\ [\\(\\w]+"
      }
    },
    "required": ["last_used", "token", "user_agent"],
    "additionalProperties": false
  }
}
